{
  "0": {
    "name": "Domingo",
    "schedules":[],
    "blockedLicenses":[]
  },
  "1": {
    "name": "Lunes",
    "schedules":[{"startTime": "06:00","endTime": "09:30"},{"startTime": "16:00","endTime": "21:00"}],
    "blockedLicenses":[1,2]
  },
  "2": {
    "name": "Martes",
    "schedules":[{"startTime": "06:00","endTime": "09:30"},{"startTime": "16:00","endTime": "21:00"}],
    "blockedLicenses":[3,4]
  },
  "3": {
    "name": "Miércoles",
    "schedules":[{"startTime": "06:00","endTime": "09:30"},{"startTime": "16:00","endTime": "21:00"}],
    "blockedLicenses":[5,6]
  },
  "4": {
    "name": "Jueves",
    "schedules":[{"startTime": "06:00","endTime": "09:30"},{"startTime": "16:00","endTime": "21:00"}],
    "blockedLicenses":[7,8]
  },
  "5": {
    "name": "Viernes",
    "schedules":[{"startTime": "06:00","endTime": "09:30"},{"startTime": "16:00","endTime": "21:00"}],
    "blockedLicenses":[9,0]
  },
  "6": {
    "name": "Sábado",
    "schedules":[],
    "blockedLicenses":[]
  }
}
